<?xml version="1.0" encoding="UTF-8" standalone="no"?>
<svg
   xmlns:dc="http://purl.org/dc/elements/1.1/"
   xmlns:cc="http://creativecommons.org/ns#"
   xmlns:rdf="http://www.w3.org/1999/02/22-rdf-syntax-ns#"
   xmlns:svg="http://www.w3.org/2000/svg"
   xmlns="http://www.w3.org/2000/svg"
   xmlns:sodipodi="http://sodipodi.sourceforge.net/DTD/sodipodi-0.dtd"
   xmlns:inkscape="http://www.inkscape.org/namespaces/inkscape"
   width="758px"
   height="758px"
   viewBox="0 0 758 758"
   version="1.1"
   id="svg14"
   sodipodi:docname="CS-innards.svg"
   inkscape:export-filename="/home/stavros/Code/Django/codeshelter/static/images/logo-innards-32.png"
   inkscape:export-xdpi="4.0500002"
   inkscape:export-ydpi="4.0500002"
   inkscape:version="0.92.3 (2405546, 2018-03-11)">
  <metadata
     id="metadata20">
    <rdf:RDF>
      <cc:Work
         rdf:about="">
        <dc:format>image/svg+xml</dc:format>
        <dc:type
           rdf:resource="http://purl.org/dc/dcmitype/StillImage" />
        <dc:title>CS-solid</dc:title>
      </cc:Work>
    </rdf:RDF>
  </metadata>
  <defs
     id="defs18" />
  <sodipodi:namedview
     pagecolor="#5c4b7c"
     bordercolor="#666666"
     borderopacity="1"
     objecttolerance="10"
     gridtolerance="10"
     guidetolerance="10"
     inkscape:pageopacity="0"
     inkscape:pageshadow="2"
     inkscape:window-width="1920"
     inkscape:window-height="1031"
     id="namedview16"
     showgrid="false"
     inkscape:zoom="0.31134565"
     inkscape:cx="393.45339"
     inkscape:cy="379"
     inkscape:window-x="0"
     inkscape:window-y="25"
     inkscape:window-maximized="1"
     inkscape:current-layer="svg14"
     inkscape:pagecheckerboard="false" />
  <!-- Generator: Sketch 52.2 (67145) - http://www.bohemiancoding.com/sketch -->
  <title
     id="title2">CS-solid</title>
  <desc
     id="desc4">Created with Sketch.</desc>
  <g
     id="g4675"
     transform="matrix(0.71672697,0,0,0.71672697,107.36048,107.36048)">
    <polyline
       transform="matrix(1.5282785,0,0,1.5282785,69.801344,43.197522)"
       style="fill:none;fill-rule:evenodd;stroke:#ffffff;stroke-width:52.57329941;stroke-linecap:round;stroke-linejoin:round;stroke-opacity:1"
       points="1.13056601 163.607732 202.318266 1.18257158 403.505966 163.607732"
       id="Line" />
    <g
       style="fill:#ffffff;fill-opacity:1;fill-rule:evenodd;stroke:#ffffff;stroke-width:1.00157475;stroke-miterlimit:4;stroke-dasharray:none;stroke-opacity:1"
       transform="matrix(1.5282785,0,0,1.5282785,127.14295,359.82292)"
       id="Group-2">
      <path
         style="fill:#ffffff;fill-opacity:1;stroke:#ffffff;stroke-width:1.00157475;stroke-miterlimit:4;stroke-dasharray:none;stroke-opacity:1"
         inkscape:connector-curvature="0"
         id="Path"
         d="m 285.63329,131.28815 v -5.40323 C 259.05525,122.96426 244.01384,109.52921 244.01384,88.3544 V 63.236695 c 0,-19.130345 -6.1334,-26.139937 -23.51134,-26.139937 h -6.71753 V 0.58846618 h 12.26679 c 48.04491,0 67.46732,16.50174782 67.46732,56.66086882 v 18.546213 c 0,20.590676 10.22232,28.914572 35.77813,29.060602 v 47.46078 c -25.70184,0.29206 -35.77813,8.61595 -35.77813,29.0606 v 17.37794 c 0,41.03532 -19.56844,58.12121 -67.46732,58.12121 h -12.26679 v -36.5083 h 6.71753 c 17.23191,0 23.51134,-7.00959 23.51134,-25.9939 v -25.5558 c 0,-21.17481 15.04141,-34.60987 41.61945,-37.53053 z" />
      <path
         style="fill:#ffffff;fill-opacity:1;stroke:#ffffff;stroke-width:1.00157475;stroke-miterlimit:4;stroke-dasharray:none;stroke-opacity:1"
         inkscape:connector-curvature="0"
         id="path9"
         d="m 43.962458,131.28815 c 26.578036,2.92066 41.473419,16.35572 41.473419,37.53053 v 25.5558 c 0,19.13034 6.279426,25.9939 23.657373,25.9939 h 6.71753 v 36.5083 h -12.26679 c -48.044912,0 -67.613357,-16.93985 -67.613357,-57.82914 v -17.67001 c 0,-20.44465 -10.076288,-28.76854 -35.63209262,-29.0606 V 104.85615 C 25.708312,104.71012 35.930633,96.386224 35.930633,75.795548 V 57.249335 c 0,-40.159121 19.568445,-56.66086882 67.613357,-56.66086882 h 12.26679 V 37.096758 h -6.71753 c -17.377947,0 -23.657373,7.009592 -23.657373,26.139937 V 88.3544 c 0,21.17481 -14.895383,34.60986 -41.473419,37.53052 z" />
    </g>
  </g>
</svg>
